s100 -< TRUE.
p100 -< TRUE.
r50 -< TRUE.
s99 -< TRUE.
p99 -< TRUE.
s98 -< TRUE.
p98 -< TRUE.
s97 -< TRUE.
p97 -< TRUE.
s96 -< TRUE.
p96 -< TRUE.
s95 -< TRUE.
p95 -< TRUE.
s94 -< TRUE.
p94 -< TRUE.
s93 -< TRUE.
p93 -< TRUE.
s92 -< TRUE.
p92 -< TRUE.
s91 -< TRUE.
p91 -< TRUE.
s90 -< TRUE.
p90 -< TRUE.
s89 -< TRUE.
p89 -< TRUE.
s88 -< TRUE.
p88 -< TRUE.
s87 -< TRUE.
p87 -< TRUE.
s86 -< TRUE.
p86 -< TRUE.
s85 -< TRUE.
p85 -< TRUE.
s84 -< TRUE.
p84 -< TRUE.
s83 -< TRUE.
p83 -< TRUE.
s82 -< TRUE.
p82 -< TRUE.
s81 -< TRUE.
p81 -< TRUE.
s80 -< TRUE.
p80 -< TRUE.
s79 -< TRUE.
p79 -< TRUE.
s78 -< TRUE.
p78 -< TRUE.
s77 -< TRUE.
p77 -< TRUE.
s76 -< TRUE.
p76 -< TRUE.
s75 -< TRUE.
p75 -< TRUE.
s74 -< TRUE.
p74 -< TRUE.
s73 -< TRUE.
p73 -< TRUE.
s72 -< TRUE.
p72 -< TRUE.
s71 -< TRUE.
p71 -< TRUE.
s70 -< TRUE.
p70 -< TRUE.
s69 -< TRUE.
p69 -< TRUE.
s68 -< TRUE.
p68 -< TRUE.
s67 -< TRUE.
p67 -< TRUE.
s66 -< TRUE.
p66 -< TRUE.
s65 -< TRUE.
p65 -< TRUE.
s64 -< TRUE.
p64 -< TRUE.
s63 -< TRUE.
p63 -< TRUE.
s62 -< TRUE.
p62 -< TRUE.
s61 -< TRUE.
p61 -< TRUE.
s60 -< TRUE.
p60 -< TRUE.
s59 -< TRUE.
p59 -< TRUE.
s58 -< TRUE.
p58 -< TRUE.
s57 -< TRUE.
p57 -< TRUE.
s56 -< TRUE.
p56 -< TRUE.
s55 -< TRUE.
p55 -< TRUE.
s54 -< TRUE.
p54 -< TRUE.
s53 -< TRUE.
p53 -< TRUE.
s52 -< TRUE.
p52 -< TRUE.
s51 -< TRUE.
p51 -< TRUE.
s50 -< TRUE.
p50 -< TRUE.
s49 -< TRUE.
p49 -< TRUE.
s48 -< TRUE.
p48 -< TRUE.
s47 -< TRUE.
p47 -< TRUE.
s46 -< TRUE.
p46 -< TRUE.
s45 -< TRUE.
p45 -< TRUE.
s44 -< TRUE.
p44 -< TRUE.
s43 -< TRUE.
p43 -< TRUE.
s42 -< TRUE.
p42 -< TRUE.
s41 -< TRUE.
p41 -< TRUE.
s40 -< TRUE.
p40 -< TRUE.
s39 -< TRUE.
p39 -< TRUE.
s38 -< TRUE.
p38 -< TRUE.
s37 -< TRUE.
p37 -< TRUE.
s36 -< TRUE.
p36 -< TRUE.
s35 -< TRUE.
p35 -< TRUE.
s34 -< TRUE.
p34 -< TRUE.
s33 -< TRUE.
p33 -< TRUE.
s32 -< TRUE.
p32 -< TRUE.
s31 -< TRUE.
p31 -< TRUE.
s30 -< TRUE.
p30 -< TRUE.
s29 -< TRUE.
p29 -< TRUE.
s28 -< TRUE.
p28 -< TRUE.
s27 -< TRUE.
p27 -< TRUE.
s26 -< TRUE.
p26 -< TRUE.
s25 -< TRUE.
p25 -< TRUE.
s24 -< TRUE.
p24 -< TRUE.
s23 -< TRUE.
p23 -< TRUE.
s22 -< TRUE.
p22 -< TRUE.
s21 -< TRUE.
p21 -< TRUE.
s20 -< TRUE.
p20 -< TRUE.
s19 -< TRUE.
p19 -< TRUE.
s18 -< TRUE.
p18 -< TRUE.
s17 -< TRUE.
p17 -< TRUE.
s16 -< TRUE.
p16 -< TRUE.
s15 -< TRUE.
p15 -< TRUE.
s14 -< TRUE.
p14 -< TRUE.
s13 -< TRUE.
p13 -< TRUE.
s12 -< TRUE.
p12 -< TRUE.
s11 -< TRUE.
p11 -< TRUE.
s10 -< TRUE.
p10 -< TRUE.
s9 -< TRUE.
p9 -< TRUE.
s8 -< TRUE.
p8 -< TRUE.
s7 -< TRUE.
p7 -< TRUE.
s6 -< TRUE.
p6 -< TRUE.
s5 -< TRUE.
p5 -< TRUE.
s4 -< TRUE.
p4 -< TRUE.
s3 -< TRUE.
p3 -< TRUE.
s2 -< TRUE.
p2 -< TRUE.
s1 -< TRUE.
p1 -< TRUE.
r49 -< TRUE.
r48 -< TRUE.
r47 -< TRUE.
r46 -< TRUE.
r45 -< TRUE.
r44 -< TRUE.
r43 -< TRUE.
r42 -< TRUE.
r41 -< TRUE.
r40 -< TRUE.
r39 -< TRUE.
r38 -< TRUE.
r37 -< TRUE.
r36 -< TRUE.
r35 -< TRUE.
r34 -< TRUE.
r33 -< TRUE.
r32 -< TRUE.
r31 -< TRUE.
r30 -< TRUE.
r29 -< TRUE.
r28 -< TRUE.
r27 -< TRUE.
r26 -< TRUE.
r25 -< TRUE.
r24 -< TRUE.
r23 -< TRUE.
r22 -< TRUE.
r21 -< TRUE.
r20 -< TRUE.
r19 -< TRUE.
r18 -< TRUE.
r17 -< TRUE.
r16 -< TRUE.
r15 -< TRUE.
r14 -< TRUE.
r13 -< TRUE.
r12 -< TRUE.
r11 -< TRUE.
r10 -< TRUE.
r9 -< TRUE.
r8 -< TRUE.
r7 -< TRUE.
r6 -< TRUE.
r5 -< TRUE.
r4 -< TRUE.
r3 -< TRUE.
r2 -< TRUE.
r1 -< TRUE.
TRUE.
