s25 -< TRUE.
p25 -< TRUE.
r12 -< TRUE.
s24 -< TRUE.
p24 -< TRUE.
s23 -< TRUE.
p23 -< TRUE.
s22 -< TRUE.
p22 -< TRUE.
s21 -< TRUE.
p21 -< TRUE.
s20 -< TRUE.
p20 -< TRUE.
s19 -< TRUE.
p19 -< TRUE.
s18 -< TRUE.
p18 -< TRUE.
s17 -< TRUE.
p17 -< TRUE.
s16 -< TRUE.
p16 -< TRUE.
s15 -< TRUE.
p15 -< TRUE.
s14 -< TRUE.
p14 -< TRUE.
s13 -< TRUE.
p13 -< TRUE.
s12 -< TRUE.
p12 -< TRUE.
s11 -< TRUE.
p11 -< TRUE.
s10 -< TRUE.
p10 -< TRUE.
s9 -< TRUE.
p9 -< TRUE.
s8 -< TRUE.
p8 -< TRUE.
s7 -< TRUE.
p7 -< TRUE.
s6 -< TRUE.
p6 -< TRUE.
s5 -< TRUE.
p5 -< TRUE.
s4 -< TRUE.
p4 -< TRUE.
s3 -< TRUE.
p3 -< TRUE.
s2 -< TRUE.
p2 -< TRUE.
s1 -< TRUE.
p1 -< TRUE.
r11 -< TRUE.
r10 -< TRUE.
r9 -< TRUE.
r8 -< TRUE.
r7 -< TRUE.
r6 -< TRUE.
r5 -< TRUE.
r4 -< TRUE.
r3 -< TRUE.
r2 -< TRUE.
r1 -< TRUE.
TRUE.
